Plotting Crunch Objects • crplyr
…
Autoplots are great, but cubes can quickly become too complex for a general plotting method to do a good job at representing the plot. If we include lots of dimensions in a cube, or include a dimension with a lot of categories the plot becomes unreadable. We can still work with these types of cubes by using the as_tibble method to convert it into a long data frame. This lets us further process the data to produce a readable plot.

cube <- crtabs(~ Country + Professional + TabsSpaces, ds)
cube_tbl <- as_tibble(cube)
cube_tbl

## # A tibble: 4,848 x 6
##    Country             Professional  TabsSpaces is_missing count row_count
##    <fct>               <fct>         <fct>      <lgl>      <dbl>     <dbl>
##  1 Afghanistan         None of these Both       FALSE          0         0
##  2 Aland Islands       None of these Both       FALSE          0         0
##  3 Albania             None of these Both       FALSE          0         0
##  4 Algeria             None of these Both       FALSE          0         0
##  5 American Samoa      None of these Both       FALSE          0         0
##  6 Andorra             None of these Both       FALSE          0         0
##  7 Angola              None of these Both       FALSE          0         0
##  8 Anguilla            None of these Both       FALSE          0         0
##  9 Antarctica          None of these Both       FALSE          0         0
## 10 Antigua and Barbuda None of these Both       FALSE          0         0
## # … with 4,838 more rows
…
This lets you combine the speed and efficiency of the Crunch computation infrastructure with the flexibility of the tidyverse. You can let Crunch do the memory intensive counting operation, but still get a tidy dataframe representation that is easy to work with using other packages.

Array Variables in tibbles

Array variables are treated slightly differently from regular Crunch variables both in the cube itself and the tbl_df which is produced by as_tibble. Array variables add two dimensions to the tibble, in the case of categorical array variables these will be the subvariables and their categories, and for multiple response this will be the options and whether or not each option was selected.

cube <- crtabs(~ WantWorkMR + ImportantHiring, ds)
cube_tbl <- as_tibble(cube)
cube_tbl

## # A tibble: 6,120 x 7
##    WantWorkMR_items WantWorkMR_sele… ImportantHiring… ImportantHiring…
##    <fct>            <lgl>            <fct>            <fct>           
##  1 VBA              TRUE             ImportantHiring… Not at all impo…
##  2 TypeScript       TRUE             ImportantHiring… Not at all impo…
##  3 Java             TRUE             ImportantHiring… Not at all impo…
##  4 Scala            TRUE             ImportantHiring… Not at all impo…
##  5 JavaScript       TRUE             ImportantHiring… Not at all impo…
##  6 Perl             TRUE             ImportantHiring… Not at all impo…
##  7 Lua              TRUE             ImportantHiring… Not at all impo…
##  8 Matlab           TRUE             ImportantHiring… Not at all impo…
##  9 Erlang           TRUE             ImportantHiring… Not at all impo…
## 10 Assembly         TRUE             ImportantHiring… Not at all impo…
## # … with 6,110 more rows, and 3 more variables: is_missing <lgl>, count <dbl>,
## #   row_count <dbl>
…
